﻿{
  "version": "1.0.0-*",
  "buildOptions": {
    "emitEntryPoint": true
  },

  "dependencies": {
    "Microsoft.EntityFrameworkCore.Design": {
      "type": "build",
      "version": "1.0.1"
    },
    "Microsoft.EntityFrameworkCore.Sqlite": "1.0.0",
    "Microsoft.EntityFrameworkCore.Tools": "1.0.0-preview3-final",
    "Microsoft.NETCore.App": {
      "type": "platform",
      "version": "1.0.0"
    }
  },

  "frameworks": {
    "netcoreapp1.0": {
      "imports": "dnxcore50"
    }
  },
  "tools": {
    "Microsoft.EntityFrameworkCore.Tools": "1.0.0-preview2-final"
  }
}
